…
#End to end data analysis 
#Data obtained from QFISH database 


```{r}
library(tidyverse)
```


```{r}
iris # look at iris
str(iris) # check it out - what type is it? how many rows?

as_tibble(iris)
#> # A tibble: 150 × 5
#>   Sepal.Length Sepal.Width Petal.Length Petal.Width Species
#>          <dbl>       <dbl>        <dbl>       <dbl> <fct>  
#> 1          5.1         3.5          1.4         0.2 setosa 
#> 2          5.9         3            1.4         0.2 setosa 
#> 3          5.7         3.2          1.3         0.2 setosa 
#> 4          5.6         3.1          1.5         0.2 setosa 
#> 5          5           3.6          1.4         0.2 setosa 
#> 6          5.4         3.9          1.7         0.4 setosa 
#> # ... with 144 more rows
…
```

```{r}
as_tibble(iris)
```

```{r}
tibble(
  a = lubridate::now() + runif(1e3) * 86400,
  b = lubridate::today() + runif(1e3) * 30,
  c = 1:1e3,
  d = runif(1e3),
  e = sample(letters, 1e3, replace = TRUE)
)
#> # A tibble: 1,000 × 5
#>   a                   b              c     d e    
#>   <dttm>              <date>     <int> <dbl> <chr>
#> 1 2022-11-18 23:15:18 2022-11-25     1 0.368 n    
#> 2 2022-11-19 17:20:28 2022-11-30     2 0.612 l    
#> 3 2022-11-19 11:44:07 2022-12-10     3 0.415 p    
#> 4 2022-11-19 01:05:24 2022-12-09     4 0.212 m    
#> 5 2022-11-18 21:29:41 2022-12-06     5 0.733 i    
#> 6 2022-11-19 08:30:38 2022-12-02     6 0.460 n    
#> # ... with 994 more rows
…
```{r}
table1
#> # A tibble: 6 × 4
#>   country      year  cases population
#>   <chr>       <int>  <int>      <int>
#> 1 Afghanistan  1999    745   19987071
#> 2 Afghanistan  2000   2666   20595360
#> 3 Brazil       1999  37737  172006362
#> 4 Brazil       2000  80488  174504898
#> 5 China        1999 212258 1272915272
#> 6 China        2000 213766 1280428583
table2
#> # A tibble: 12 × 4
#>   country      year type           count
#>   <chr>       <int> <chr>          <int>
#> 1 Afghanistan  1999 cases            745
#> 2 Afghanistan  1999 population  19987071
#> 3 Afghanistan  2000 cases           2666
#> 4 Afghanistan  2000 population  20595360
#> 5 Brazil       1999 cases          37737
#> 6 Brazil       1999 population 172006362
#> # ... with 6 more rows
…
```{r}
#load the copepod data into R studio
library(readr)
dat <- read_csv("data-for-course/copepods_raw.csv")
dat
```


# A tibble: 5,313 × 11
   silk_id segment_no latitude longitude sample_time_utc  project route vessel  
     <dbl>      <dbl>    <dbl>     <dbl> <chr>            <chr>   <chr> <chr>   
 1       1          1    -28.3      154. 26/06/2009 22:08 AusCPR  BRSY  ANL Win...
 2       1          5    -28.7      154. 26/06/2009 23:12 AusCPR  BRSY  ANL Win...
 3       1          9    -29.0      154. 27/06/2009 0:17  AusCPR  BRSY  ANL Win...
 4       1         13    -29.3      154. 27/06/2009 1:22  AusCPR  BRSY  ANL Win...
 5       1         17    -29.7      154. 27/06/2009 2:26  AusCPR  BRSY  ANL Win...
 6       1         18    -29.8      154. 27/06/2009 2:43  AusCPR  BRSY  ANL Win...
 7       1         26    -30.4      153. 27/06/2009 4:52  AusCPR  BRSY  ANL Win...
 8       1         30    -30.7      153. 27/06/2009 5:57  AusCPR  BRSY  ANL Win...
 9       1         33    -31.0      153. 27/06/2009 6:45  AusCPR  BRSY  ANL Win...
10       1         37    -31.3      153. 27/06/2009 7:50  AusCPR  BRSY  ANL Win...
# ... with 5,303 more rows, and 3 more variables: meanlong <dbl>, region <chr>,
#   richness_raw <dbl>
…
